Tema 4: Tablas y la tabla dinamica
…
Detengmos un momento, y respondamos con total franqueza :

 les gusta la forma en cmo se representa de manera tabular la siguiente informacin?

Ejemplo 1: datos data

La tabla data es la siguiente

## # A tibble: 1,000 x 14
##       Id   ano fecha               ingreso1 ingreso2 ingreso3 ingreso4 ingreso5
##    <dbl> <dbl> <dttm>                 <dbl>    <dbl>    <dbl>    <dbl>    <dbl>
##  1  1001  2018 2018-01-01 00:00:00     6432     8715     5028     1305     4265
##  2  1002  2018 2018-01-02 00:00:00     8494     7370     3066     2180     7449
##  3  1003  2018 2018-01-03 00:00:00     9529     1936     5597     2398     4697
##  4  1004  2018 2018-01-04 00:00:00     9565     1513     4609     1674     9828
##  5  1005  2018 2018-01-05 00:00:00     4061     6501     3367     3283     7437
##  6  1006  2018 2018-01-06 00:00:00     3137     4938     2294     1515     8726
##  7  1007  2018 2018-01-07 00:00:00     8326     6700     9813     9265     4149
##  8  1008  2018 2018-01-08 00:00:00     8668     8028     3146     7369     2235
##  9  1009  2018 2018-01-09 00:00:00     4328     3387     9795     7312     4338
## 10  1010  2018 2018-01-10 00:00:00     5574     2583     1824     2521     9390
## # ... with 990 more rows, and 6 more variables: Sexo <chr>, Estadocivil <dbl>,
## #   Trabajador <dbl>, Nacionalidad <dbl>, Sangre <chr>, logica <chr>
…
